Text mining - nøie trust pilot reviews | Lucas Bagge
…
    1 
    50 

    2 
    29 

    3 
    30 

It is also possible to get the per-topic word probabilities or ‘beta’

topics_pos <- tidy(reviewLDA_pos, matrix = "beta")
topics_pos

## # A tibble: 3,336 x 3
##    topic term          beta
##    <int> <chr>        <dbl>
##  1     1 creme     0.0611  
##  2     2 creme     0.0320  
##  3     3 creme     0.0499  
##  4     1 tak       0.000964
##  5     2 tak       0.00569 
##  6     3 tak       0.00600 
##  7     1 hud       0.0216  
##  8     2 hud       0.0229  
##  9     3 hud       0.0275  
## 10     1 produkter 0.0229  
## # … with 3,326 more rows
…
