…
<img src="index.en_files/figure-html/unnamed-chunk-2-2.png" width="2400" />


```r
moviereview %>%
  count(nchar(text), sort = TRUE)
```

```
## # A tibble: 541 x 2
##    `nchar(text)`     n
##            <int> <int>
##  1            84   455
##  2            85   448
##  3            82   444
##  4            94   441
##  5           106   432
##  6            86   431
##  7           102   429
##  8            89   426
##  9            99   426
## 10           112   426
## # … with 531 more rows
```
…
```r
movie_rec %>%
  prep() %>%
  tidy(3)
```

```
## # A tibble: 2,000 x 4
##    terms vocabulary token id                   
##    <chr>      <int> <chr> <chr>                
##  1 text           1 000   sequence_onehot_8EsCG
##  2 text           2 1     sequence_onehot_8EsCG
##  3 text           3 10    sequence_onehot_8EsCG
##  4 text           4 100   sequence_onehot_8EsCG
##  5 text           5 13    sequence_onehot_8EsCG
##  6 text           6 1995  sequence_onehot_8EsCG
##  7 text           7 1996  sequence_onehot_8EsCG
##  8 text           8 1997  sequence_onehot_8EsCG
##  9 text           9 1998  sequence_onehot_8EsCG
## 10 text          10 1999  sequence_onehot_8EsCG
## # … with 1,990 more rows
```
…
